"n0" "n_iter" "whichCov" "whichTrend" "reEstim" "whichTraining"
"1" 100 500 1 1 2 1
"2" 100 500 1 1 2 2
"3" 100 500 1 1 2 3
"4" 100 500 1 1 2 4
"5" 100 500 2 1 2 1
"6" 100 500 2 1 2 2
"7" 100 500 2 1 2 3
"8" 100 500 2 1 2 4
"9" 100 500 3 1 2 1
"10" 100 500 3 1 2 2
"11" 100 500 3 1 2 3
"12" 100 500 3 1 2 4
